changes-to-the-manual-of-patent-practice_part.html.md,0
citation-formats_part.html.md,1
glossary-of-terms-and-abbreviations-used-in-this-manual_part.html.md,0
manual-of-patent-practice-introduction_part.html.md,1
regulation-ec-no-1610-96-of-the-european-parliament-and-of-the-council-plant-protection-products_part.html.md,1
sections-11-effect-of-transfer-of-application-under-s-8-or-10_part.html.md,0
sections-32-register-of-patents-etc_part.html.md,0
section-1-patentability_part.html.md,24
section-2-novelty_part.html.md,11
section-3-inventive-step_part.html.md,8
section-4-industrial-application_part.html.md,0
section-5-priority-date_part.html.md,4
section-6-disclosure-of-matter-etc-between-earlier-and-later-applications_part.html.md,1
section-7-right-to-apply-for-and-obtain-a-patent_part.html.md,3
section-8-determination-before-grant-of-questions-about-entitlement-to-patents-etc_part.html.md,8
section-9-determination-after-grant-of-questions-referred-before-grant_part.html.md,0
section-10-handling-of-application-by-joint-applicants_part.html.md,3
section-12-determination-of-questions-about-entitlement-to-foreign-and-convention-patents-etc_part.html.md,3
section-13-mention-of-inventor_part.html.md,1
section-14-the-application_part.html.md,25
section-15a-preliminary-examination_part.html.md,0
section-15-date-of-filing-application_part.html.md,4
section-16-publication-of-application_part.html.md,0
section-17-search_part.html.md,5
section-18-substantive-examination-and-grant-or-refusal-of-patent_part.html.md,16
section-19-general-power-to-amend-application-before-grant_part.html.md,0
section-20a-reinstatement-of-applications_part.html.md,8
section-20b-effect-of-reinstatement-under-section-20a_part.html.md,0
section-20-failure-of-application_part.html.md,0
section-21-observations-by-third-party-on-patentability_part.html.md,1
section-22-information-prejudicial-to-national-security-or-safety-of-public_part.html.md,2
section-23-restrictions-on-applications-abroad-by-united-kingdom-residents_part.html.md,0
section-24-publication-and-certificate-of-grant_part.html.md,0
section-25-term-of-patent_part.html.md,1
section-26-patent-not-to-be-impugned-for-lack-of-unity_part.html.md,0
section-27-general-power-to-amend-specification-after-grant_part.html.md,7
section-28a-effect-of-order-for-restoration-of-patent_part.html.md,0
section-28-restoration-of-lapsed-patents_part.html.md,12
section-29-surrender-of-patents_part.html.md,1
section-30-nature-of-and-transactions-in-patents-and-applications-for-patents_part.html.md,0
section-31-nature-of-and-transactions-in-patents-and-applications-for-patents-in-scotland_part.html.md,0
section-33-effect-of-registration-etc-on-rights-in-patents_part.html.md,0
section-34-rectification-of-register_part.html.md,0
section-35-evidence-of-register-documents-etc-repealed_part.html.md,0
section-36-co-ownership-of-patents-and-applications-for-patents_part.html.md,2
section-37-determination-of-right-to-patent-after-grant_part.html.md,0
section-38-effect-of-transfer-of-patent-under-s-37_part.html.md,0
section-39-right-to-employees-inventions_part.html.md,3
section-40-compensation-of-employees-for-certain-inventions_part.html.md,4
section-41-amount-of-compensation_part.html.md,0
section-42-enforceability-of-contracts-relating-to-employees-inventions_part.html.md,2
section-43-supplementary_part.html.md,0
section-44-avoidance-of-certain-restrictive-conditions-repealed-with-savings_part.html.md,0
section-45-determination-of-parts-of-certain-contracts-repealed-with-savings_part.html.md,0
section-46-patentee-s-application-for-entry-in-register-that-licences-are-available-as-of-right_part.html.md,25
section-47-cancellation-of-entry-made-under-s-46_part.html.md,0
section-48a-compulsory-licences-wto-proprietors_part.html.md,0
section-48b-compulsory-licences-other-cases_part.html.md,2
section-48-compulsory-licences-general_part.html.md,1
section-49-provisions-about-licences-under-s-48_part.html.md,0
section-50a-powers-exercisable-following-merger-and-market-investigations_part.html.md,0
section-50-exercise-of-powers-on-applications-under-s-48_part.html.md,1
section-51-powers-exercisable-in-consequence-of-report-of-competition-and-markets-authority_part.html.md,0
section-52-opposition-appeal-and-arbitration_part.html.md,0
section-53-compulsory-licences-supplementary-provisions_part.html.md,0
section-54-special-provisions-where-patented-invention-is-being-worked-abroard_part.html.md,0
section-55-use-of-patented-inventions-for-services-of-the-crown_part.html.md,0
section-56-interpretation-etc-of-provisions-about-crown-use_part.html.md,0
section-57a-compensation-for-loss-of-profit_part.html.md,0
section-57-rights-of-third-parties-in-respect-of-crown-use_part.html.md,0
section-58-references-of-disputes-as-to-crown-use_part.html.md,0
section-59-special-provisions-as-to-crown-use-during-emergency_part.html.md,0
section-60-meaning-of-infringement_part.html.md,7
section-61-proceedings-for-infringement-of-patent_part.html.md,0
section-62-restrictions-on-recovery-of-damages-for-infringement_part.html.md,1
section-63-relief-for-infringement-of-partially-valid-patent_part.html.md,0
section-64-right-to-continue-use-begun-before-priority-date_part.html.md,1
section-65-certificate-of-contested-validity-of-patent_part.html.md,0
section-66-proceedings-for-infringement-by-a-co-owner_part.html.md,0
section-67-proceedings-for-infringement-by-exclusive-licensee_part.html.md,0
section-68-effect-of-non-registration-on-infringement-proceedings_part.html.md,1
section-69-infringement-of-rights-conferred-by-publication-of-application_part.html.md,0
section-70a-actionable-threats_part.html.md,0
section-70b-permitted-communications_part.html.md,0
section-70c-remedies-and-defences_part.html.md,0
section-70d-professional-advisers_part.html.md,0
section-70e-supplementary-pending-registration_part.html.md,0
section-70f-supplementary-proceedings-for-delivery-up-etc_part.html.md,0
section-70-remedy-for-groundless-threats-of-infringement-proceedings_part.html.md,1
section-71-declaration-or-declarator-as-to-non-infringement_part.html.md,0
section-72-power-to-revoke-patents-on-application_part.html.md,7
section-73-comptroller-s-power-to-revoke-patents-on-his-own-initiative_part.html.md,3
section-74a-opinions-on-matters-prescribed-in-the-rules_part.html.md,2
section-74b-reviews-of-opinions-under-section-74a_part.html.md,2
section-74-proceedings-in-which-validity-of-patent-may-be-put-in-issue_part.html.md,0
section-75-amendment-of-patent-in-infringement-or-revocation-proceedings_part.html.md,11
section-76a-biotechnological-inventions_part.html.md,1
section-76-amendments-of-applications-and-patents-not-to-include-added-matter_part.html.md,10
section-77-effect-of-european-patent-uk_part.html.md,0
section-78-effect-of-filing-an-application-for-a-european-patent-uk_part.html.md,3
section-79-operation-of-s-78-in-relation-to-certain-european-patent-applications_part.html.md,0
section-80-authentic-text-of-european-patents-and-patent-applications_part.html.md,0
section-81-conversion-of-european-patent-applications_part.html.md,1
section-82-jurisdiction-to-determine-questions-as-to-right-to-a-patent_part.html.md,3
section-83-effect-of-patent-decisions-of-competent-authorities-of-other-states_part.html.md,0
section-84-patent-agents-and-other-representatives-repealed_part.html.md,0
section-85-european-patent-attorneys-repealed_part.html.md,1
section-86-implementation-of-community-patent-convention-repealed_part.html.md,0
section-87-decisions-on-community-patent-convention-repealed_part.html.md,0
section-88a-implementation-of-agreement-on-a-unified-patent-court_part.html.md,0
section-88b-designation-as-international-organisation-of-which-uk-is-member_part.html.md,0
section-88-jurisdiction-in-legal-proceedings-in-connection-with-community-patent-convention-repealed_part.html.md,0
section-89a-international-and-national-phases-of-application_part.html.md,2
section-89b-adaptation-of-provisions-in-relation-to-international-application_part.html.md,7
section-89-effect-of-international-application-for-patent_part.html.md,5
section-90-orders-in-council-as-to-convention-countries_part.html.md,0
section-91-evidence-of-conventions-and-instruments-under-conventions_part.html.md,1
section-92-obtaining-evidence-for-proceedings-under-the-european-patent-convention_part.html.md,0
section-93-enforcement-of-orders-for-costs_part.html.md,0
section-94-communication-of-information-to-the-european-patent-office-etc_part.html.md,0
section-95-financial-provisions_part.html.md,0
section-96-the-patents-court-repealed_part.html.md,0
section-97-appeals-from-the-comptroller_part.html.md,2
section-98-proceedings-in-scotland_part.html.md,0
section-99a-power-of-patents-court-to-order-report_part.html.md,0
section-99b-power-of-court-of-session-to-order-report_part.html.md,0
section-99-general-powers-of-the-court_part.html.md,1
section-100-burden-of-proof-in-certain-cases_part.html.md,5
section-101-exercise-of-comptroller-s-discretionary-powers_part.html.md,1
section-102a-right-of-audience-etc-in-proceedings-on-appeal-from-the-comptroller-repealed_part.html.md,0
section-102-right-of-audience-etc-in-proceedings-before-the-comptroller_part.html.md,2
section-103-extension-of-privilege-for-communications-with-solicitors-relating-to-patent-proceedings_part.html.md,0
section-104-privilege-for-communications-with-patent-agents-relating-to-patent-proceedings-repealed_part.html.md,0
section-105-extension-of-privilege-in-scotland-for-communications-relating-to-patent-proceedings_part.html.md,0
section-106-costs-and-expenses-in-proceedings-before-the-court_part.html.md,0
section-107-costs-and-expenses-in-proceedings-before-the-comptroller_part.html.md,6
section-108-licences-granted-by-order-of-comptroller_part.html.md,0
section-109-falsification-of-register-etc_part.html.md,0
section-110-unauthorised-claim-of-patent-rights_part.html.md,1
section-111-unauthorised-claim-that-patent-has-been-applied-for_part.html.md,1
section-112-misuse-of-title-patent-office_part.html.md,0
section-113-offences-by-corporations_part.html.md,0
section-114-restrictions-on-practice-as-patent-agent-repealed_part.html.md,0
section-115-power-of-comptroller-to-refuse-to-deal-with-certain-agents-repealed_part.html.md,0
section-116-immunity-of-department-as-regards-official-acts_part.html.md,1
section-117a-effect-of-resuscitating-a-withdrawn-application-under-section-117_part.html.md,0
section-117b-extension-of-time-limits-specified-by-comptroller_part.html.md,0
section-117-correction-of-errors-in-patents-and-applications_part.html.md,18
section-118a-copyright-in-documents-made-available-electronically-for-inspection-under-section-118-1-repealed_part.html.md,0
section-118-information-about-patent-applications-and-patents-and-inspection-of-documents_part.html.md,20
section-119-service-by-post_part.html.md,1
section-120-hours-of-business-and-excluded-days_part.html.md,0
section-121-comptroller-s-annual-report_part.html.md,2
section-122-crown-s-right-to-sell-forfeited-articles_part.html.md,0
section-123-rules_part.html.md,50
section-124a-use-of-electronic-communications_part.html.md,0
section-124-rules-regulations-and-orders-supplementary_part.html.md,0
section-125a-disclosure-of-invention-by-specification-availability-of-samples-of-biological-material_part.html.md,9
section-125-extent-of-invention_part.html.md,12
section-126-stamp-duty-repealed_part.html.md,0
section-127-existing-patents-and-applications_part.html.md,0
section-128a-eu-compulsory-licences_part.html.md,0
section-128b-supplementary-protection-certificates_part.html.md,2
section-128-priorities-between-patents-and-applications-under-1949-act-and-this-act-spent_part.html.md,0
section-129-application-of-act-to-crown_part.html.md,1
section-130-interpretation_part.html.md,7
section-131a-scotland_part.html.md,0
section-131-northern-ireland_part.html.md,1
section-132-short-title-extent-commencement-consequential-amendments-and-repeals_part.html.md,1
section-274-persons-permitted-to-carry-on-business-of-a-patent-agent_part.html.md,4
section-275a-regulation-of-patent-attorneys_part.html.md,0
section-275-the-register-of-patent-attorneys_part.html.md,1
section-276-persons-entitled-to-describe-themselves-as-patent-agents_part.html.md,2
section-277-persons-entitled-to-describe-themselves-as-european-patent-attorneys-c_part.html.md,1
section-278-use-of-the-term-patent-attorney-supplementary-provisions_part.html.md,0
section-279-power-to-prescribe-conditions-etc-for-mixed-partnerships-and-bodies-corporate-repealed_part.html.md,0
section-280-privilege-for-communications-with-patent-agents_part.html.md,1
section-281-power-of-comptroller-to-refuse-to-deal-with-certain-agents_part.html.md,0
section-285-offences-committed-by-partnerships-and-bodies-corporate_part.html.md,0
section-286-interpretation_part.html.md,0
section-287-patents-county-courts-special-jurisdiction-repealed_part.html.md,1
section-288-financial-limits-in-relation-to-proceedings-within-special-jurisdiction-of-patents-county-court-repealed_part.html.md,0
section-290-limitation-of-costs-where-pecuniary-claim-could-have-been-brought-in-patents-county-court-repealed_part.html.md,2
section-291-proceedings-in-patents-county-court-repealed_part.html.md,1
section-292-rights-and-duties-of-registered-patent-agents-in-relation-to-proceedings-in-patents-county-court-repealed_part.html.md,0
section-293-restriction-of-acts-authorised-by-certain-licences_part.html.md,0
section-294-when-application-may-be-made-for-settlement-of-terms-of-licence-spent_part.html.md,0
section-295-patents-miscellaneous-amendments_part.html.md,0
standard-titles-for-online-database-names_part.html.md,0
supplementary-protection-certificates-for-medicinal-and-plant-protection-products_part.html.md,9
table-of-cases_part.html.md,0
-section-4a-methods-of-treatment-or-diagnosis_part.html.md,1
_part.html.md,1
